Anomaly detection in time series
…
  anomalize(remainder,
            method='IQR' # "iqr", "gesd"
            )%>% # Step 2
  
  time_recompose() %>% #Step 3
  
  plot_anomalies(time_recomposed = TRUE) # Step 4

Workflow of Anomaly detection

1- time_decompose

## # A tibble: 187 x 5
##    date        observed  season median_spans remainder
##    <date>         <dbl>   <dbl>        <dbl>     <dbl>
##  1 2004-01-29  5.55e-17  0.0587     2.08e-16   -0.0587
##  2 2004-02-29  4.00e+ 1  0.694      2.08e-16   39.3   
##  3 2004-03-29  0.        1.60       2.08e-16   -1.60  
##  4 2004-04-29  6.50e+ 1 -0.714      2.08e-16   65.7   
##  5 2004-05-29  6.94e-18  0.0453     2.08e-16   -0.0453
##  6 2004-06-29  5.55e-17  0.132      2.08e-16   -0.132 
##  7 2004-07-29 -1.11e-16 -0.581      2.08e-16    0.581 
##  8 2004-08-29  0.       -1.32       2.08e-16    1.32  
##  9 2004-09-29  2.80e+ 1 -0.526      2.08e-16   28.5   
## 10 2004-10-29  5.50e+ 1  0.185      2.08e-16   54.8   
## #  with 177 more rows

Workflow of Anomaly detection

2- anomalize

## # A tibble: 187 x 3
##    remainder_l1 remainder_l2 anomaly
##           <dbl>        <dbl> <chr>  
##  1        -4.97         4.97 No     
##  2        -4.97         4.97 Yes    
##  3        -4.97         4.97 No     
##  4        -4.97         4.97 Yes    
##  5        -4.97         4.97 No     
##  6        -4.97         4.97 No     
##  7        -4.97         4.97 No     
##  8        -4.97         4.97 No     
##  9        -4.97         4.97 Yes    
## 10        -4.97         4.97 Yes    
## #  with 177 more rows

Workflow of Anomaly detection

3- time_recompose

## # A tibble: 187 x 2
##    recomposed_l1 recomposed_l2
##            <dbl>         <dbl>
##  1         -4.91          5.02
##  2         -4.27          5.66
##  3         -3.36          6.57
##  4         -5.68          4.25
##  5         -4.92          5.01
##  6         -4.83          5.10
##  7         -5.55          4.38
##  8         -6.29          3.65
##  9         -5.49          4.44
## 10         -4.78          5.15
## #  with 177 more rows
…
